%YAML 1.1
%TAG !u! tag:unity3d.com,2011:
--- !u!1045 &1
EditorBuildSettings:
  m_ObjectHideFlags: 0
  serializedVersion: 2
  m_Scenes:
  - enabled: 1
    path: Assets/JulianStopher/Scenes/PlayScreen.unity
    guid: 2cda990e2423bbf4892e6590ba056729
  - enabled: 1
    path: Assets/JulianStopher/Scenes/LoseScreen.unity
    guid: 7b33a6912641d334ca838e518c16bdbb
  - enabled: 1
    path: Assets/JulianStopher/Scenes/WinScreen.unity
    guid: 5e3ff3712ed531343b903d70f5364573
  m_configObjects: {}
