%YAML 1.1
%TAG !u! tag:unity3d.com,2011:
--- !u!1 &5952523913964242810
GameObject:
  m_ObjectHideFlags: 0
  m_CorrespondingSourceObject: {fileID: 0}
  m_PrefabInstance: {fileID: 0}
  m_PrefabAsset: {fileID: 0}
  serializedVersion: 6
  m_Component:
  - component: {fileID: 5952523913964242804}
  - component: {fileID: 5952523913964242811}
  m_Layer: 0
  m_Name: DamNodeManager
  m_TagString: Untagged
  m_Icon: {fileID: 0}
  m_NavMeshLayer: 0
  m_StaticEditorFlags: 0
  m_IsActive: 1
--- !u!4 &5952523913964242804
Transform:
  m_ObjectHideFlags: 0
  m_CorrespondingSourceObject: {fileID: 0}
  m_PrefabInstance: {fileID: 0}
  m_PrefabAsset: {fileID: 0}
  m_GameObject: {fileID: 5952523913964242810}
  m_LocalRotation: {x: 0, y: 0, z: 0, w: 1}
  m_LocalPosition: {x: -3.39, y: -1.72, z: 0}
  m_LocalScale: {x: 0.45, y: 0.43, z: 0.47}
  m_Children: []
  m_Father: {fileID: 0}
  m_RootOrder: 0
  m_LocalEulerAnglesHint: {x: 0, y: 0, z: 0}
--- !u!114 &5952523913964242811
MonoBehaviour:
  m_ObjectHideFlags: 0
  m_CorrespondingSourceObject: {fileID: 0}
  m_PrefabInstance: {fileID: 0}
  m_PrefabAsset: {fileID: 0}
  m_GameObject: {fileID: 5952523913964242810}
  m_Enabled: 1
  m_EditorHideFlags: 0
  m_Script: {fileID: 11500000, guid: 6dacab468aab4e840ac7b1790ff73e36, type: 3}
  m_Name: 
  m_EditorClassIdentifier: 
  node: {fileID: 8236596290338522623, guid: 1186813c9901d8047850815a2d7cc5ff, type: 3}
  mainCamera: {fileID: 0}
  activeNodes: []
  inactiveNodes: []
  isManagingDam: 1
  flowRate: 0
